EESchema Schematic File Version 2
LIBS:power
LIBS:device
LIBS:transistors
LIBS:conn
LIBS:linear
LIBS:regul
LIBS:74xx
LIBS:cmos4000
LIBS:adc-dac
LIBS:memory
LIBS:xilinx
LIBS:microcontrollers
LIBS:dsp
LIBS:microchip
LIBS:analog_switches
LIBS:motorola
LIBS:texas
LIBS:intel
LIBS:audio
LIBS:interface
LIBS:digital-audio
LIBS:philips
LIBS:display
LIBS:cypress
LIBS:siliconi
LIBS:opto
LIBS:atmel
LIBS:contrib
LIBS:valves
LIBS:stm32
LIBS:lph7366
LIBS:handler
LIBS:project-cache
EELAYER 25 0
EELAYER END
$Descr A4 11693 8268
encoding utf-8
Sheet 1 1
Title ""
Date ""
Rev ""
Comp ""
Comment1 ""
Comment2 ""
Comment3 ""
Comment4 ""
$EndDescr
$Comp
L STM32F030F4P6 U101
U 1 1 5829BAC0
P 8100 1500
F 0 "U101" H 8100 2300 60  0000 C CNN
F 1 "STM32F030F4P6" H 9100 900 60  0000 C CNN
F 2 "Local:TSSOP-20_4.4x6.5mm_Pitch0.65mm" H 8300 1500 60  0001 C CNN
F 3 "" H 8300 1500 60  0000 C CNN
	1    8100 1500
	1    0    0    -1  
$EndComp
$Comp
L SWD J101
U 1 1 5829BB52
P 3700 3050
F 0 "J101" H 3700 3350 60  0000 C CNN
F 1 "SWD" H 3700 2750 60  0000 C CNN
F 2 "Local:Pin_Header_Straight_1x04" H 3500 3050 60  0001 C CNN
F 3 "" H 3500 3050 60  0000 C CNN
	1    3700 3050
	1    0    0    -1  
$EndComp
Wire Wire Line
	5900 2000 5800 2000
Wire Wire Line
	5900 2100 5800 2100
Wire Wire Line
	3300 2900 3200 2900
Wire Wire Line
	3300 3100 3200 3100
Text GLabel 5800 2000 0    47   Input ~ 0
SWDIO
Text GLabel 5800 2100 0    47   Input ~ 0
SWCLK
Text GLabel 3200 2900 0    47   Input ~ 0
SWDIO
Text GLabel 3200 3100 0    47   Input ~ 0
SWCLK
Wire Wire Line
	3300 3000 3200 3000
Wire Wire Line
	3300 3200 3200 3200
Wire Wire Line
	3200 3200 3200 3300
$Comp
L GND #PWR01
U 1 1 5829BC1E
P 3200 3300
F 0 "#PWR01" H 3200 3050 50  0001 C CNN
F 1 "GND" H 3200 3150 50  0000 C CNN
F 2 "" H 3200 3300 50  0000 C CNN
F 3 "" H 3200 3300 50  0000 C CNN
	1    3200 3300
	1    0    0    -1  
$EndComp
$Comp
L +3V3 #PWR02
U 1 1 5829BC36
P 3200 3000
F 0 "#PWR02" H 3200 2850 50  0001 C CNN
F 1 "+3V3" V 3200 3200 50  0000 C CNN
F 2 "" H 3200 3000 50  0000 C CNN
F 3 "" H 3200 3000 50  0000 C CNN
	1    3200 3000
	0    -1   -1   0   
$EndComp
$Comp
L +3V3 #PWR03
U 1 1 5829BC87
P 10400 1800
F 0 "#PWR03" H 10400 1650 50  0001 C CNN
F 1 "+3V3" V 10400 2000 50  0000 C CNN
F 2 "" H 10400 1800 50  0000 C CNN
F 3 "" H 10400 1800 50  0000 C CNN
	1    10400 1800
	0    1    1    0   
$EndComp
Wire Wire Line
	10400 1800 10300 1800
Wire Wire Line
	10300 2100 10400 2100
Wire Wire Line
	10400 2100 10400 2200
$Comp
L GND #PWR04
U 1 1 5829BCE3
P 10400 2200
F 0 "#PWR04" H 10400 1950 50  0001 C CNN
F 1 "GND" H 10400 2050 50  0000 C CNN
F 2 "" H 10400 2200 50  0000 C CNN
F 3 "" H 10400 2200 50  0000 C CNN
	1    10400 2200
	1    0    0    -1  
$EndComp
Wire Wire Line
	10300 1900 10400 1900
$Comp
L C C105
U 1 1 5829BD6E
P 8000 2950
F 0 "C105" H 8025 3050 50  0000 L CNN
F 1 "100n" H 8025 2850 50  0000 L CNN
F 2 "Local:C_0603" H 8038 2800 50  0001 C CNN
F 3 "" H 8000 2950 50  0000 C CNN
	1    8000 2950
	1    0    0    -1  
$EndComp
$Comp
L C C106
U 1 1 5829BE30
P 8400 2950
F 0 "C106" H 8425 3050 50  0000 L CNN
F 1 "100n" H 8425 2850 50  0000 L CNN
F 2 "Local:C_0603" H 8438 2800 50  0001 C CNN
F 3 "" H 8400 2950 50  0000 C CNN
	1    8400 2950
	1    0    0    -1  
$EndComp
Wire Wire Line
	8000 2800 8000 2700
Wire Wire Line
	8400 2800 8400 2700
Wire Wire Line
	8000 3100 8000 3200
Wire Wire Line
	8400 3100 8400 3200
$Comp
L GND #PWR05
U 1 1 5829BEB2
P 8000 3200
F 0 "#PWR05" H 8000 2950 50  0001 C CNN
F 1 "GND" H 8000 3050 50  0000 C CNN
F 2 "" H 8000 3200 50  0000 C CNN
F 3 "" H 8000 3200 50  0000 C CNN
	1    8000 3200
	1    0    0    -1  
$EndComp
$Comp
L GND #PWR06
U 1 1 5829BEC9
P 8400 3200
F 0 "#PWR06" H 8400 2950 50  0001 C CNN
F 1 "GND" H 8400 3050 50  0000 C CNN
F 2 "" H 8400 3200 50  0000 C CNN
F 3 "" H 8400 3200 50  0000 C CNN
	1    8400 3200
	1    0    0    -1  
$EndComp
$Comp
L +3V3 #PWR07
U 1 1 5829BEDE
P 8000 2700
F 0 "#PWR07" H 8000 2550 50  0001 C CNN
F 1 "+3V3" H 8000 2840 50  0000 C CNN
F 2 "" H 8000 2700 50  0000 C CNN
F 3 "" H 8000 2700 50  0000 C CNN
	1    8000 2700
	1    0    0    -1  
$EndComp
$Comp
L +3V3 #PWR08
U 1 1 5829BF1F
P 8400 2700
F 0 "#PWR08" H 8400 2550 50  0001 C CNN
F 1 "+3V3" H 8400 2840 50  0000 C CNN
F 2 "" H 8400 2700 50  0000 C CNN
F 3 "" H 8400 2700 50  0000 C CNN
	1    8400 2700
	1    0    0    -1  
$EndComp
Text GLabel 10400 1900 2    47   Input ~ 0
+3V3A
Text GLabel 9200 2700 1    47   Input ~ 0
+3V3A
$Comp
L CP C104
U 1 1 5829C0E2
P 7600 2950
F 0 "C104" H 7625 3050 50  0000 L CNN
F 1 "10u" H 7625 2850 50  0000 L CNN
F 2 "Local:C_1206" H 7638 2800 50  0001 C CNN
F 3 "" H 7600 2950 50  0000 C CNN
	1    7600 2950
	1    0    0    -1  
$EndComp
Wire Wire Line
	7600 2800 7600 2700
$Comp
L +3V3 #PWR09
U 1 1 5829C133
P 7600 2700
F 0 "#PWR09" H 7600 2550 50  0001 C CNN
F 1 "+3V3" H 7600 2840 50  0000 C CNN
F 2 "" H 7600 2700 50  0000 C CNN
F 3 "" H 7600 2700 50  0000 C CNN
	1    7600 2700
	1    0    0    -1  
$EndComp
Wire Wire Line
	7600 3100 7600 3200
$Comp
L GND #PWR010
U 1 1 5829C146
P 7600 3200
F 0 "#PWR010" H 7600 2950 50  0001 C CNN
F 1 "GND" H 7600 3050 50  0000 C CNN
F 2 "" H 7600 3200 50  0000 C CNN
F 3 "" H 7600 3200 50  0000 C CNN
	1    7600 3200
	1    0    0    -1  
$EndComp
Wire Wire Line
	5900 1800 5800 1800
Wire Wire Line
	5900 1900 5800 1900
Wire Wire Line
	10300 1600 10400 1600
$Comp
L GND #PWR011
U 1 1 5829C3C7
P 10400 1600
F 0 "#PWR011" H 10400 1350 50  0001 C CNN
F 1 "GND" V 10400 1400 50  0000 C CNN
F 2 "" H 10400 1600 50  0000 C CNN
F 3 "" H 10400 1600 50  0000 C CNN
	1    10400 1600
	0    -1   -1   0   
$EndComp
Wire Wire Line
	10300 900  10400 900 
Text GLabel 10400 900  2    47   Input ~ 0
TEMP_SENS
Wire Wire Line
	10300 1400 10400 1400
Text GLabel 10400 1400 2    47   Input ~ 0
~RESET
Wire Wire Line
	10300 1100 10400 1100
Wire Wire Line
	10300 1200 10400 1200
Text GLabel 5800 1000 0    47   Input ~ 0
~ENC_A
Text GLabel 5800 1100 0    47   Input ~ 0
~ENC_B
$Comp
L LPH7366 U201
U 1 1 5829D976
P 2000 1300
F 0 "U201" H 2000 1850 60  0000 C CNN
F 1 "LPH7366" V 2100 1300 60  0000 C CNN
F 2 "Local:LPH-7366" H 1800 1200 60  0001 C CNN
F 3 "" H 1800 1200 60  0000 C CNN
	1    2000 1300
	1    0    0    -1  
$EndComp
$Comp
L +3V3 #PWR012
U 1 1 5829D97D
P 1000 800
F 0 "#PWR012" H 1000 650 60  0001 C CNN
F 1 "+3V3" H 1000 940 60  0000 C CNN
F 2 "" H 1000 800 60  0000 C CNN
F 3 "" H 1000 800 60  0000 C CNN
	1    1000 800 
	1    0    0    -1  
$EndComp
$Comp
L C C202
U 1 1 5829D983
P 1100 1950
F 0 "C202" H 1150 2050 50  0000 L CNN
F 1 "100n" H 1150 1850 50  0000 L CNN
F 2 "Local:C_0603" H 1138 1800 30  0001 C CNN
F 3 "" H 1100 1950 60  0000 C CNN
	1    1100 1950
	1    0    0    -1  
$EndComp
$Comp
L GND #PWR013
U 1 1 5829D98A
P 700 1400
F 0 "#PWR013" H 700 1150 60  0001 C CNN
F 1 "GND" H 700 1250 60  0000 C CNN
F 2 "" H 700 1400 60  0000 C CNN
F 3 "" H 700 1400 60  0000 C CNN
	1    700  1400
	1    0    0    -1  
$EndComp
$Comp
L LED D201
U 1 1 5829D990
P 2900 1200
F 0 "D201" H 2900 1300 50  0000 C CNN
F 1 "LED" H 2900 1100 50  0000 C CNN
F 2 "Local:LED_0603" H 2900 1200 60  0001 C CNN
F 3 "" H 2900 1200 60  0000 C CNN
	1    2900 1200
	0    -1   -1   0   
$EndComp
$Comp
L LED D202
U 1 1 5829D997
P 3300 1200
F 0 "D202" H 3300 1300 50  0000 C CNN
F 1 "LED" H 3300 1100 50  0000 C CNN
F 2 "Local:LED_0603" H 3300 1200 60  0001 C CNN
F 3 "" H 3300 1200 60  0000 C CNN
	1    3300 1200
	0    -1   -1   0   
$EndComp
$Comp
L LED D203
U 1 1 5829D99E
P 3700 1200
F 0 "D203" H 3700 1300 50  0000 C CNN
F 1 "LED" H 3700 1100 50  0000 C CNN
F 2 "Local:LED_0603" H 3700 1200 60  0001 C CNN
F 3 "" H 3700 1200 60  0000 C CNN
	1    3700 1200
	0    -1   -1   0   
$EndComp
$Comp
L LED D204
U 1 1 5829D9A5
P 4100 1200
F 0 "D204" H 4100 1300 50  0000 C CNN
F 1 "LED" H 4100 1100 50  0000 C CNN
F 2 "Local:LED_0603" H 4100 1200 60  0001 C CNN
F 3 "" H 4100 1200 60  0000 C CNN
	1    4100 1200
	0    -1   -1   0   
$EndComp
$Comp
L Q_NPN_BEC Q201
U 1 1 5829D9C8
P 3400 1800
F 0 "Q201" H 3400 1651 40  0000 R CNN
F 1 "S9013" H 3400 1950 40  0000 R CNN
F 2 "Local:SOT-23" H 3300 1902 29  0001 C CNN
F 3 "" H 3400 1800 60  0000 C CNN
	1    3400 1800
	1    0    0    -1  
$EndComp
$Comp
L GND #PWR014
U 1 1 5829D9CF
P 3500 2100
F 0 "#PWR014" H 3500 1850 60  0001 C CNN
F 1 "GND" H 3500 1950 60  0000 C CNN
F 2 "" H 3500 2100 60  0000 C CNN
F 3 "" H 3500 2100 60  0000 C CNN
	1    3500 2100
	1    0    0    -1  
$EndComp
$Comp
L +3V3 #PWR015
U 1 1 5829D9D5
P 3500 800
F 0 "#PWR015" H 3500 650 60  0001 C CNN
F 1 "+3V3" H 3500 940 60  0000 C CNN
F 2 "" H 3500 800 60  0000 C CNN
F 3 "" H 3500 800 60  0000 C CNN
	1    3500 800 
	1    0    0    -1  
$EndComp
$Comp
L R R201
U 1 1 5829D9DB
P 2950 1800
F 0 "R201" V 3030 1800 50  0000 C CNN
F 1 "1K" V 2957 1801 50  0000 C CNN
F 2 "Local:R_0603" V 2880 1800 30  0001 C CNN
F 3 "" H 2950 1800 30  0000 C CNN
	1    2950 1800
	0    -1   -1   0   
$EndComp
Text Notes 1500 2450 0    60   ~ 0
R2-R4 is 0R for white, blue LEDs\nBacklight can be dimmed using PWM
$Comp
L GND #PWR016
U 1 1 5829D9E3
P 1100 2200
F 0 "#PWR016" H 1100 1950 60  0001 C CNN
F 1 "GND" H 1100 2050 60  0000 C CNN
F 2 "" H 1100 2200 60  0000 C CNN
F 3 "" H 1100 2200 60  0000 C CNN
	1    1100 2200
	1    0    0    -1  
$EndComp
$Comp
L GND #PWR017
U 1 1 5829D9E9
P 900 2200
F 0 "#PWR017" H 900 1950 60  0001 C CNN
F 1 "GND" H 900 2050 60  0000 C CNN
F 2 "" H 900 2200 60  0000 C CNN
F 3 "" H 900 2200 60  0000 C CNN
	1    900  2200
	1    0    0    -1  
$EndComp
$Comp
L C C201
U 1 1 5829D9EF
P 700 1150
F 0 "C201" H 750 1250 50  0000 L CNN
F 1 "100n" H 750 1050 50  0000 L CNN
F 2 "Local:C_0603" H 738 1000 30  0001 C CNN
F 3 "" H 700 1150 60  0000 C CNN
	1    700  1150
	1    0    0    -1  
$EndComp
Text GLabel 1500 1000 0    47   Input ~ 0
LCD_SCLK
Text GLabel 1500 1100 0    47   Input ~ 0
LCD_MOSI
Text GLabel 1500 1200 0    47   Input ~ 0
LCD_D~C
Text GLabel 1500 1300 0    47   Input ~ 0
~LCD_NSS
Text GLabel 1500 1700 0    47   Input ~ 0
~LCD_RES
Text GLabel 2700 1800 0    47   Input ~ 0
LCD_BLC
Wire Wire Line
	700  900  1600 900 
Wire Wire Line
	1000 800  1000 1400
Wire Wire Line
	1600 1600 1100 1600
Wire Wire Line
	1100 1600 1100 1800
Connection ~ 1000 900 
Wire Wire Line
	1500 1000 1600 1000
Wire Wire Line
	1500 1100 1600 1100
Wire Wire Line
	1500 1200 1600 1200
Wire Wire Line
	1500 1300 1600 1300
Wire Wire Line
	2900 1400 2900 1500
Wire Wire Line
	2900 1500 4100 1500
Wire Wire Line
	3300 1500 3300 1400
Wire Wire Line
	3700 1500 3700 1400
Connection ~ 3300 1500
Wire Wire Line
	4100 1500 4100 1400
Connection ~ 3700 1500
Wire Wire Line
	2900 900  2900 1000
Wire Wire Line
	3300 900  3300 1000
Wire Wire Line
	3700 900  3700 1000
Wire Wire Line
	4100 900  4100 1000
Wire Wire Line
	2900 900  4100 900 
Connection ~ 3300 900 
Connection ~ 3700 900 
Wire Wire Line
	3500 1600 3500 1500
Connection ~ 3500 1500
Wire Wire Line
	3500 2000 3500 2100
Wire Wire Line
	3500 800  3500 900 
Connection ~ 3500 900 
Wire Wire Line
	2800 1800 2700 1800
Wire Wire Line
	3200 1800 3100 1800
Wire Wire Line
	1000 1400 1600 1400
Wire Wire Line
	1100 2100 1100 2200
Wire Wire Line
	1600 1500 900  1500
Wire Wire Line
	900  1500 900  2200
Wire Wire Line
	700  1300 700  1400
Wire Wire Line
	700  900  700  1000
Wire Wire Line
	1600 1700 1500 1700
$Comp
L EC11E S201
U 1 1 5829DF1B
P 1600 3100
F 0 "S201" H 1400 3350 60  0000 C CNN
F 1 "EC11E" H 1600 2850 60  0000 C CNN
F 2 "Local:EC11E" H 1650 3100 60  0001 C CNN
F 3 "" H 1650 3100 60  0000 C CNN
	1    1600 3100
	1    0    0    -1  
$EndComp
Text GLabel 1000 3000 0    47   Input ~ 0
~ENC_A
Text GLabel 1000 3200 0    47   Input ~ 0
~ENC_B
Text GLabel 2100 3000 2    47   Input ~ 0
~ENC_E
$Comp
L GND #PWR018
U 1 1 5829DF25
P 1100 3300
F 0 "#PWR018" H 1100 3050 60  0001 C CNN
F 1 "GND" H 1100 3150 60  0000 C CNN
F 2 "" H 1100 3300 60  0000 C CNN
F 3 "" H 1100 3300 60  0000 C CNN
	1    1100 3300
	1    0    0    -1  
$EndComp
$Comp
L GND #PWR019
U 1 1 5829DF2B
P 2100 3300
F 0 "#PWR019" H 2100 3050 60  0001 C CNN
F 1 "GND" H 2100 3150 60  0000 C CNN
F 2 "" H 2100 3300 60  0000 C CNN
F 3 "" H 2100 3300 60  0000 C CNN
	1    2100 3300
	1    0    0    -1  
$EndComp
Wire Wire Line
	1000 3000 1200 3000
Wire Wire Line
	1000 3200 1200 3200
Wire Wire Line
	2000 3200 2100 3200
Wire Wire Line
	2100 3100 2100 3300
Wire Wire Line
	1200 3100 1100 3100
Wire Wire Line
	1100 3100 1100 3300
Wire Wire Line
	2000 3000 2100 3000
Text GLabel 5800 1200 0    47   Input ~ 0
~ENC_E
Wire Wire Line
	5900 1100 5800 1100
$Comp
L R R103
U 1 1 5829F3E5
P 4600 3050
F 0 "R103" V 4680 3050 50  0000 C CNN
F 1 "4K7" V 4607 3051 50  0000 C CNN
F 2 "Local:R_0603" V 4530 3050 30  0001 C CNN
F 3 "" H 4600 3050 30  0000 C CNN
	1    4600 3050
	-1   0    0    1   
$EndComp
$Comp
L GND #PWR020
U 1 1 5829F3EC
P 4600 3300
F 0 "#PWR020" H 4600 3050 50  0001 C CNN
F 1 "GND" H 4600 3150 50  0000 C CNN
F 2 "" H 4600 3300 60  0000 C CNN
F 3 "" H 4600 3300 60  0000 C CNN
	1    4600 3300
	1    0    0    -1  
$EndComp
$Comp
L C C107
U 1 1 5829F3F2
P 4900 3050
F 0 "C107" H 4925 3150 50  0000 L CNN
F 1 "10n" H 4925 2950 50  0000 L CNN
F 2 "Local:C_0603" H 4938 2900 30  0001 C CNN
F 3 "" H 4900 3050 60  0000 C CNN
	1    4900 3050
	1    0    0    -1  
$EndComp
$Comp
L GND #PWR021
U 1 1 5829F3F9
P 4900 3300
F 0 "#PWR021" H 4900 3050 60  0001 C CNN
F 1 "GND" H 4900 3150 60  0000 C CNN
F 2 "" H 4900 3300 60  0000 C CNN
F 3 "" H 4900 3300 60  0000 C CNN
	1    4900 3300
	1    0    0    -1  
$EndComp
Text GLabel 4900 2700 1    47   Input ~ 0
TEMP_SENS
$Comp
L THERMISTOR TH101
U 1 1 5829F400
P 4600 2450
F 0 "TH101" V 4700 2500 50  0000 C CNN
F 1 "100K" V 4500 2450 50  0000 C BNN
F 2 "Local:Pin_Header_Straight_1x02" H 4600 2450 60  0001 C CNN
F 3 "" H 4600 2450 60  0000 C CNN
	1    4600 2450
	-1   0    0    -1  
$EndComp
Wire Wire Line
	4600 2100 4600 2200
Wire Wire Line
	4600 2700 4600 2900
Wire Wire Line
	4600 3200 4600 3300
Wire Wire Line
	4600 2800 4900 2800
Wire Wire Line
	4900 2700 4900 2900
Connection ~ 4600 2800
Wire Wire Line
	4900 3200 4900 3300
Connection ~ 4900 2800
Text GLabel 5800 1900 0    47   Input ~ 0
~FAN_DRV
Text GLabel 5800 1800 0    47   Input ~ 0
~HEAT_DRV
Text GLabel 5800 1400 0    47   Input ~ 0
LCD_SCLK
Text GLabel 5800 1600 0    47   Input ~ 0
LCD_MOSI
Text GLabel 10400 1100 2    47   Input ~ 0
LCD_D~C
Text GLabel 5800 1500 0    47   Input ~ 0
~LCD_NSS
Text GLabel 5800 1300 0    47   Input ~ 0
LCD_BLC
Wire Wire Line
	5900 900  5800 900 
Wire Wire Line
	5900 1000 5800 1000
Wire Wire Line
	5900 1300 5800 1300
Wire Wire Line
	5900 1400 5800 1400
Wire Wire Line
	5900 1500 5800 1500
Wire Wire Line
	5900 1600 5800 1600
Wire Wire Line
	5900 1200 5800 1200
Wire Wire Line
	9200 3100 9200 3200
$Comp
L GND #PWR022
U 1 1 582A43E3
P 9200 3200
F 0 "#PWR022" H 9200 2950 50  0001 C CNN
F 1 "GND" H 9200 3050 50  0000 C CNN
F 2 "" H 9200 3200 50  0000 C CNN
F 3 "" H 9200 3200 50  0000 C CNN
	1    9200 3200
	1    0    0    -1  
$EndComp
Wire Wire Line
	9200 2700 9200 2800
Text GLabel 9600 2700 1    47   Input ~ 0
+3V3A
$Comp
L C C102
U 1 1 582A44D0
P 9600 2950
F 0 "C102" H 9625 3050 50  0000 L CNN
F 1 "10n" H 9625 2850 50  0000 L CNN
F 2 "Local:C_0603" H 9638 2800 50  0001 C CNN
F 3 "" H 9600 2950 50  0000 C CNN
	1    9600 2950
	1    0    0    -1  
$EndComp
Wire Wire Line
	9600 3100 9600 3200
$Comp
L GND #PWR023
U 1 1 582A44D7
P 9600 3200
F 0 "#PWR023" H 9600 2950 50  0001 C CNN
F 1 "GND" H 9600 3050 50  0000 C CNN
F 2 "" H 9600 3200 50  0000 C CNN
F 3 "" H 9600 3200 50  0000 C CNN
	1    9600 3200
	1    0    0    -1  
$EndComp
Wire Wire Line
	9600 2700 9600 2800
$Comp
L R R101
U 1 1 582A468D
P 10000 2950
F 0 "R101" V 10080 2950 50  0000 C CNN
F 1 "1R" V 10000 2950 50  0000 C CNN
F 2 "Local:R_0603" V 9930 2950 50  0001 C CNN
F 3 "" H 10000 2950 50  0000 C CNN
	1    10000 2950
	-1   0    0    1   
$EndComp
Wire Wire Line
	10000 3100 10000 3200
Text GLabel 10000 3200 3    47   Input ~ 0
+3V3A
Wire Wire Line
	10000 2800 10000 2700
$Comp
L +3V3 #PWR024
U 1 1 582A49C9
P 10000 2700
F 0 "#PWR024" H 10000 2550 50  0001 C CNN
F 1 "+3V3" V 10000 2900 50  0000 C CNN
F 2 "" H 10000 2700 50  0000 C CNN
F 3 "" H 10000 2700 50  0000 C CNN
	1    10000 2700
	1    0    0    -1  
$EndComp
Text GLabel 4600 2100 1    47   Input ~ 0
+3V3A
Text GLabel 10400 1200 2    47   Input ~ 0
~LCD_RES
Text GLabel 5800 900  0    47   Input ~ 0
~ZERO_DET
Wire Wire Line
	2200 7600 2300 7600
Wire Wire Line
	1800 7600 1900 7600
Wire Wire Line
	2900 7000 2900 7100
Connection ~ 2500 7400
Connection ~ 2500 6200
Wire Wire Line
	2700 7400 2700 6850
Wire Wire Line
	2700 6200 2700 6450
Wire Wire Line
	2500 7400 2500 7300
Wire Wire Line
	2500 6200 2500 7000
Wire Wire Line
	2300 6200 2900 6200
Wire Wire Line
	1800 7400 2700 7400
Wire Wire Line
	1800 7000 1800 7600
Wire Wire Line
	2000 6800 2000 7000
Wire Wire Line
	2000 6500 2000 6400
Wire Wire Line
	1000 7000 1000 7100
Wire Wire Line
	1000 6800 1100 6800
$Comp
L GND #PWR025
U 1 1 582A9208
P 1000 7100
F 0 "#PWR025" H 1000 6850 60  0001 C CNN
F 1 "GND" H 1000 6950 60  0000 C CNN
F 2 "" H 1000 7100 60  0000 C CNN
F 3 "" H 1000 7100 60  0000 C CNN
	1    1000 7100
	1    0    0    -1  
$EndComp
Wire Wire Line
	1700 6800 1800 6800
Wire Wire Line
	1800 6800 1800 5900
Wire Wire Line
	1800 5900 2000 5900
Wire Wire Line
	2000 5900 2000 6000
Wire Wire Line
	1700 7000 1800 7000
Connection ~ 1800 7400
Wire Wire Line
	1100 7000 1000 7000
Text Notes 4800 6300 0    47   ~ 0
FAN DIMMER
Wire Wire Line
	3900 6600 3900 6500
Wire Wire Line
	3900 7000 3900 6900
Connection ~ 5500 7400
Wire Wire Line
	5500 7400 5500 7250
Wire Wire Line
	4900 7400 5600 7400
Wire Wire Line
	4900 7100 4900 7400
Connection ~ 4900 6500
Wire Wire Line
	4900 6500 4900 6800
Wire Wire Line
	5400 6500 5600 6500
Wire Wire Line
	5500 6500 5500 6600
Wire Wire Line
	4700 6500 4700 6600
Wire Wire Line
	4700 6500 5100 6500
Wire Wire Line
	4700 7000 4700 6900
Wire Wire Line
	4600 7000 4700 7000
Wire Wire Line
	5000 7200 4600 7200
Wire Wire Line
	4000 7200 3900 7200
Wire Wire Line
	4000 7000 3900 7000
$Comp
L +3V3 #PWR026
U 1 1 582A9F85
P 3900 6500
F 0 "#PWR026" H 3900 6350 60  0001 C CNN
F 1 "+3V3" H 3900 6640 60  0000 C CNN
F 2 "" H 3900 6500 60  0000 C CNN
F 3 "" H 3900 6500 60  0000 C CNN
	1    3900 6500
	1    0    0    -1  
$EndComp
$Comp
L CONN_01X02 P501
U 1 1 582A9F8B
P 6600 6950
F 0 "P501" H 6600 7100 50  0000 C CNN
F 1 "FAN" V 6700 6950 50  0000 C CNN
F 2 "Local:2PIN_HEAD" H 6600 6950 60  0001 C CNN
F 3 "" H 6600 6950 60  0000 C CNN
	1    6600 6950
	1    0    0    1   
$EndComp
$Comp
L TRIAC U502
U 1 1 582A9FB6
P 5500 7000
F 0 "U502" H 5550 7300 70  0000 L CNN
F 1 "BTA12" H 5250 6700 60  0000 C CNN
F 2 "Local:TO-220_Neutral123_Horizontal" H 5500 7000 60  0001 C CNN
F 3 "" H 5500 7000 60  0000 C CNN
	1    5500 7000
	1    0    0    -1  
$EndComp
$Comp
L CONN_01X02 P301
U 1 1 582A9FBF
P 1300 6150
F 0 "P301" H 1300 6300 50  0000 C CNN
F 1 "SUPPLY" V 1400 6150 50  0000 C CNN
F 2 "Local:2PIN_HEAD" H 1300 6150 60  0001 C CNN
F 3 "" H 1300 6150 60  0000 C CNN
	1    1300 6150
	1    0    0    1   
$EndComp
Text Notes 3750 6200 0    47   ~ 0
FAN LOAD (x2):\nR = 412 Ohm (824 Ohm)\nL = 2H (4H)\nP = 46W (23W)
Connection ~ 5500 6500
$Comp
L R R501
U 1 1 582AA40E
P 3900 6750
F 0 "R501" V 3980 6750 50  0000 C CNN
F 1 "150" V 3907 6751 50  0000 C CNN
F 2 "Local:R_0603" V 3830 6750 30  0001 C CNN
F 3 "" H 3900 6750 30  0000 C CNN
	1    3900 6750
	-1   0    0    1   
$EndComp
$Comp
L R R502
U 1 1 582AA93B
P 4700 6750
F 0 "R502" V 4780 6750 50  0000 C CNN
F 1 "150" V 4707 6751 50  0000 C CNN
F 2 "Local:R_1206" V 4630 6750 30  0001 C CNN
F 3 "" H 4700 6750 30  0000 C CNN
	1    4700 6750
	-1   0    0    1   
$EndComp
$Comp
L R R503
U 1 1 582AABCF
P 5250 6500
F 0 "R503" V 5330 6500 50  0000 C CNN
F 1 "2K2" V 5257 6501 50  0000 C CNN
F 2 "Local:R_1206" V 5180 6500 30  0001 C CNN
F 3 "" H 5250 6500 30  0000 C CNN
	1    5250 6500
	0    -1   -1   0   
$EndComp
$Comp
L C C501
U 1 1 582AB053
P 4900 6950
F 0 "C501" H 4925 7050 50  0000 L CNN
F 1 "100n" H 4925 6850 50  0000 L CNN
F 2 "Local:C_1206" H 4938 6800 50  0001 C CNN
F 3 "" H 4900 6950 50  0000 C CNN
	1    4900 6950
	1    0    0    -1  
$EndComp
Text GLabel 1000 6800 0    47   Input ~ 0
~ZERO_DET
$Comp
L D D401
U 1 1 582ACF26
P 2900 6450
F 0 "D401" H 2900 6550 50  0000 C CNN
F 1 "1N4148" H 2900 6350 50  0000 C CNN
F 2 "Local:MiniMELF_Standard" H 2900 6450 50  0001 C CNN
F 3 "" H 2900 6450 50  0000 C CNN
	1    2900 6450
	0    -1   1    0   
$EndComp
$Comp
L D D403
U 1 1 582AD173
P 2250 6900
F 0 "D403" H 2250 7100 50  0000 C CNN
F 1 "1N4148" H 2250 7000 50  0000 C CNN
F 2 "Local:MiniMELF_Standard" H 2250 6900 50  0001 C CNN
F 3 "" H 2250 6900 50  0000 C CNN
	1    2250 6900
	1    0    0    -1  
$EndComp
$Comp
L ZENER D402
U 1 1 582AD209
P 2700 6650
F 0 "D402" H 2700 6750 50  0000 C CNN
F 1 "20V" H 2700 6550 50  0000 C CNN
F 2 "Local:MiniMELF_Standard" H 2700 6650 50  0001 C CNN
F 3 "" H 2700 6650 50  0000 C CNN
	1    2700 6650
	0    -1   1    0   
$EndComp
Text GLabel 2300 7600 2    60   Input ~ 0
HV_1
Text GLabel 2900 7100 3    60   Input ~ 0
HV_2
$Comp
L R R401
U 1 1 582AE1C8
P 2000 6650
F 0 "R401" V 2080 6650 50  0000 C CNN
F 1 "22" V 2000 6650 50  0000 C CNN
F 2 "Local:R_0603" V 1930 6650 50  0001 C CNN
F 3 "" H 2000 6650 50  0000 C CNN
	1    2000 6650
	-1   0    0    -1  
$EndComp
Text GLabel 5600 6500 2    47   Input ~ 0
HV_1
Text GLabel 6300 6900 0    47   Input ~ 0
HV_2
Text GLabel 3900 7200 0    47   Input ~ 0
~FAN_DRV
Wire Wire Line
	2900 6200 2900 6300
Connection ~ 2700 6200
Wire Wire Line
	2900 6600 2900 6700
$Comp
L R R404
U 1 1 582B33BE
P 2050 7600
F 0 "R404" V 2130 7600 50  0000 C CNN
F 1 "120K" V 2050 7600 50  0000 C CNN
F 2 "Local:R_1206" V 1980 7600 50  0001 C CNN
F 3 "" H 2050 7600 50  0000 C CNN
	1    2050 7600
	0    1    -1   0   
$EndComp
$Comp
L R R402
U 1 1 582B375E
P 2900 6850
F 0 "R402" V 2980 6850 50  0000 C CNN
F 1 "120K" V 2900 6850 50  0000 C CNN
F 2 "Local:R_1206" V 2830 6850 50  0001 C CNN
F 3 "" H 2900 6850 50  0000 C CNN
	1    2900 6850
	-1   0    0    1   
$EndComp
$Comp
L R R403
U 1 1 582B3BEE
P 2500 7150
F 0 "R403" V 2580 7150 50  0000 C CNN
F 1 "330K" V 2500 7150 50  0000 C CNN
F 2 "Local:R_0603" V 2430 7150 50  0001 C CNN
F 3 "" H 2500 7150 50  0000 C CNN
	1    2500 7150
	-1   0    0    1   
$EndComp
$Comp
L C C401
U 1 1 582B3F33
P 2000 7150
F 0 "C401" H 2025 7250 50  0000 L CNN
F 1 "470n" H 2025 7050 50  0000 L CNN
F 2 "Local:C_0603" H 2038 7000 50  0001 C CNN
F 3 "" H 2000 7150 50  0000 C CNN
	1    2000 7150
	1    0    0    -1  
$EndComp
Wire Wire Line
	2000 7300 2000 7400
Connection ~ 2000 7400
Wire Wire Line
	2100 6900 2000 6900
Connection ~ 2000 6900
Wire Wire Line
	2400 6900 2500 6900
Connection ~ 2500 6900
$Comp
L Q_PNP_BEC Q401
U 1 1 582B8F8A
P 2100 6200
F 0 "Q401" H 1950 6400 50  0000 R CNN
F 1 "BC807-40" H 1950 6300 50  0000 R CNN
F 2 "Local:SOT-23" H 2300 6300 50  0001 C CNN
F 3 "" H 2100 6200 50  0000 C CNN
	1    2100 6200
	-1   0    0    -1  
$EndComp
$Comp
L MOC3022M U501
U 1 1 582BA559
P 4300 7100
F 0 "U501" H 4300 7300 50  0000 C CNN
F 1 "MOC3022M" H 4300 6900 50  0000 C CNN
F 2 "Local:DIP-6_W7.62mm" H 4100 6900 50  0001 L CIN
F 3 "" H 4275 7100 50  0000 L CNN
	1    4300 7100
	1    0    0    -1  
$EndComp
Wire Wire Line
	6400 6900 6300 6900
Wire Wire Line
	6400 7000 6300 7000
Text GLabel 5600 7400 2    47   Input ~ 0
FAN_SW
Text GLabel 6300 7000 0    47   Input ~ 0
FAN_SW
Text Notes 1800 4250 0    47   ~ 0
HEATER LOAD:\nR = 36.6 Ohm\nL = 6.7 uH
Text Notes 2500 4100 0    47   ~ 0
HEATER DIMMER x3
Wire Wire Line
	1600 4400 1600 4800
Wire Wire Line
	2900 5200 2900 5050
Wire Wire Line
	2900 5200 3000 5200
Wire Wire Line
	2400 4300 3000 4300
Wire Wire Line
	2900 4300 2900 4400
Wire Wire Line
	2400 4300 2400 4400
Wire Wire Line
	2400 4800 2400 4700
Wire Wire Line
	2300 4800 2400 4800
Wire Wire Line
	2400 5000 2300 5000
Wire Wire Line
	1500 5000 1700 5000
Wire Wire Line
	1600 4800 1700 4800
$Comp
L +3V3 #PWR027
U 1 1 582BD9FD
P 4700 4100
F 0 "#PWR027" H 4700 3950 60  0001 C CNN
F 1 "+3V3" H 4700 4240 60  0000 C CNN
F 2 "" H 4700 4100 60  0000 C CNN
F 3 "" H 4700 4100 60  0000 C CNN
	1    4700 4100
	1    0    0    -1  
$EndComp
$Comp
L CONN_01X02 P601
U 1 1 582BDA03
P 3900 4750
F 0 "P601" H 3900 4900 50  0000 C CNN
F 1 "H1_SW" V 4000 4750 50  0000 C CNN
F 2 "Local:2PIN_HEAD" H 3900 4750 60  0001 C CNN
F 3 "" H 3900 4750 60  0000 C CNN
	1    3900 4750
	1    0    0    1   
$EndComp
$Comp
L TRIAC U602
U 1 1 582BDA09
P 2900 4800
F 0 "U602" H 2950 5100 70  0000 L CNN
F 1 "BTB24" H 2650 4500 60  0000 C CNN
F 2 "Local:TO-220_Neutral123_Horizontal" H 2900 4800 60  0001 C CNN
F 3 "" H 2900 4800 60  0000 C CNN
	1    2900 4800
	1    0    0    -1  
$EndComp
Connection ~ 2900 4300
$Comp
L R R601
U 1 1 582BDA10
P 1500 4750
F 0 "R601" V 1580 4750 50  0000 C CNN
F 1 "150" V 1507 4751 50  0000 C CNN
F 2 "Local:R_0603" V 1430 4750 30  0001 C CNN
F 3 "" H 1500 4750 30  0000 C CNN
	1    1500 4750
	-1   0    0    1   
$EndComp
$Comp
L R R602
U 1 1 582BDA16
P 2400 4550
F 0 "R602" V 2480 4550 50  0000 C CNN
F 1 "200" V 2407 4551 50  0000 C CNN
F 2 "Local:R_1206" V 2330 4550 30  0001 C CNN
F 3 "" H 2400 4550 30  0000 C CNN
	1    2400 4550
	-1   0    0    1   
$EndComp
Text GLabel 3000 5200 2    47   Input ~ 0
HV_1
Text GLabel 3600 4800 0    47   Input ~ 0
HV_1
Text GLabel 4700 4300 0    47   Input ~ 0
~HEAT_DRV
$Comp
L MOC3022M U601
U 1 1 582BDA2B
P 2000 4900
F 0 "U601" H 2000 5100 50  0000 C CNN
F 1 "MOC3022M" H 2000 4700 50  0000 C CNN
F 2 "Local:DIP-6_W7.62mm" H 1800 4700 50  0001 L CIN
F 3 "" H 1975 4900 50  0000 L CNN
	1    2000 4900
	1    0    0    -1  
$EndComp
Wire Wire Line
	3700 4800 3600 4800
Wire Wire Line
	3700 4700 3600 4700
Text GLabel 3600 4700 0    47   Input ~ 0
H1_SW
Text GLabel 1000 6200 0    47   Input ~ 0
HV_1
Text GLabel 1000 6100 0    47   Input ~ 0
HV_2
Wire Wire Line
	1100 6100 1000 6100
Wire Wire Line
	1100 6200 1000 6200
$Comp
L AP1117K33 U301
U 1 1 582C224A
P 6900 2800
F 0 "U301" H 7000 2550 50  0000 C CNN
F 1 "AP1117K33" H 6900 3050 50  0000 C CNN
F 2 "Local:SOT-223" H 6900 2800 50  0001 C CNN
F 3 "" H 6900 2800 50  0000 C CNN
	1    6900 2800
	1    0    0    -1  
$EndComp
Wire Wire Line
	6600 2800 6500 2800
$Comp
L +5V #PWR028
U 1 1 582C25A9
P 6500 2700
F 0 "#PWR028" H 6500 2550 50  0001 C CNN
F 1 "+5V" H 6500 2840 50  0000 C CNN
F 2 "" H 6500 2700 50  0000 C CNN
F 3 "" H 6500 2700 50  0000 C CNN
	1    6500 2700
	1    0    0    -1  
$EndComp
Wire Wire Line
	6500 2800 6500 2700
Wire Wire Line
	7200 2800 7300 2800
Wire Wire Line
	7300 2800 7300 2700
$Comp
L +3V3 #PWR029
U 1 1 582C2869
P 7300 2700
F 0 "#PWR029" H 7300 2550 60  0001 C CNN
F 1 "+3V3" H 7300 2840 60  0000 C CNN
F 2 "" H 7300 2700 60  0000 C CNN
F 3 "" H 7300 2700 60  0000 C CNN
	1    7300 2700
	1    0    0    -1  
$EndComp
$Comp
L GND #PWR030
U 1 1 582C2ADA
P 6900 3200
F 0 "#PWR030" H 6900 2950 50  0001 C CNN
F 1 "GND" H 6900 3050 50  0000 C CNN
F 2 "" H 6900 3200 50  0000 C CNN
F 3 "" H 6900 3200 50  0000 C CNN
	1    6900 3200
	1    0    0    -1  
$EndComp
Wire Wire Line
	6900 3100 6900 3200
$Comp
L CP C101
U 1 1 582C61F2
P 9200 2950
F 0 "C101" H 9225 3050 50  0000 L CNN
F 1 "1u" H 9225 2850 50  0000 L CNN
F 2 "Local:C_1206" H 9238 2800 50  0001 C CNN
F 3 "" H 9200 2950 50  0000 C CNN
	1    9200 2950
	1    0    0    -1  
$EndComp
Text GLabel 3000 4300 2    47   Input ~ 0
H1_SW
$Comp
L LTV-817 U401
U 1 1 582CD2E6
P 1400 6900
F 0 "U401" H 1400 7100 50  0000 C CNN
F 1 "LTV-356T" H 1400 6700 50  0000 C CNN
F 2 "Local:OPTO4S" H 1200 6700 50  0001 L CIN
F 3 "" H 1400 6900 50  0000 L CNN
	1    1400 6900
	-1   0    0    -1  
$EndComp
$Comp
L CONN_01X02 P603
U 1 1 582D319E
P 5000 4250
F 0 "P603" H 5000 4400 50  0000 C CNN
F 1 "H1_SW" V 5100 4250 50  0000 C CNN
F 2 "Local:Pin_Header_Straight_1x02" H 5000 4250 60  0001 C CNN
F 3 "" H 5000 4250 60  0000 C CNN
	1    5000 4250
	1    0    0    1   
$EndComp
$Comp
L CONN_01X02 P602
U 1 1 582D3807
P 1200 4450
F 0 "P602" H 1200 4600 50  0000 C CNN
F 1 "H1_SW" V 1300 4450 50  0000 C CNN
F 2 "Local:Pin_Header_Straight_1x02" H 1200 4450 60  0001 C CNN
F 3 "" H 1200 4450 60  0000 C CNN
	1    1200 4450
	-1   0    0    1   
$EndComp
Wire Wire Line
	4700 4100 4700 4200
Wire Wire Line
	4700 4200 4800 4200
Wire Wire Line
	4800 4300 4700 4300
Wire Wire Line
	1600 4400 1400 4400
Wire Wire Line
	1400 4500 1500 4500
$Comp
L +3V3 #PWR031
U 1 1 582D5300
P 4700 4700
F 0 "#PWR031" H 4700 4550 60  0001 C CNN
F 1 "+3V3" H 4700 4840 60  0000 C CNN
F 2 "" H 4700 4700 60  0000 C CNN
F 3 "" H 4700 4700 60  0000 C CNN
	1    4700 4700
	1    0    0    -1  
$EndComp
Text GLabel 4700 4900 0    47   Input ~ 0
~HEAT_DRV
$Comp
L CONN_01X02 P703
U 1 1 582D532C
P 5000 4850
F 0 "P703" H 5000 5000 50  0000 C CNN
F 1 "H2_SW" V 5100 4850 50  0000 C CNN
F 2 "Local:Pin_Header_Straight_1x02" H 5000 4850 60  0001 C CNN
F 3 "" H 5000 4850 60  0000 C CNN
	1    5000 4850
	1    0    0    1   
$EndComp
Wire Wire Line
	4700 4700 4700 4800
Wire Wire Line
	4700 4800 4800 4800
Wire Wire Line
	4800 4900 4700 4900
$Comp
L +3V3 #PWR032
U 1 1 582D6AE7
P 5700 4900
F 0 "#PWR032" H 5700 4750 60  0001 C CNN
F 1 "+3V3" H 5700 5040 60  0000 C CNN
F 2 "" H 5700 4900 60  0000 C CNN
F 3 "" H 5700 4900 60  0000 C CNN
	1    5700 4900
	1    0    0    -1  
$EndComp
Text GLabel 5700 5100 0    47   Input ~ 0
~HEAT_DRV
$Comp
L CONN_01X02 P803
U 1 1 582D6B13
P 6000 5050
F 0 "P803" H 6000 5200 50  0000 C CNN
F 1 "H3_SW" V 6100 5050 50  0000 C CNN
F 2 "Local:Pin_Header_Straight_1x02" H 6000 5050 60  0001 C CNN
F 3 "" H 6000 5050 60  0000 C CNN
	1    6000 5050
	1    0    0    1   
$EndComp
Wire Wire Line
	5700 4900 5700 5000
Wire Wire Line
	5700 5000 5800 5000
Wire Wire Line
	5800 5100 5700 5100
Text GLabel 10700 2950 0    47   Input ~ 0
~RESET
$Comp
L C C103
U 1 1 582DEA68
P 10800 3200
F 0 "C103" H 10825 3300 50  0000 L CNN
F 1 "100n" H 10825 3100 50  0000 L CNN
F 2 "Local:C_0603" H 10838 3050 50  0001 C CNN
F 3 "" H 10800 3200 50  0000 C CNN
	1    10800 3200
	1    0    0    -1  
$EndComp
$Comp
L R R102
U 1 1 582DECA5
P 10800 2700
F 0 "R102" V 10880 2700 50  0000 C CNN
F 1 "10K" V 10800 2700 50  0000 C CNN
F 2 "Local:R_0603" V 10730 2700 50  0001 C CNN
F 3 "" H 10800 2700 50  0000 C CNN
	1    10800 2700
	-1   0    0    1   
$EndComp
Wire Wire Line
	10800 3350 10800 3450
$Comp
L GND #PWR033
U 1 1 582DEDC8
P 10800 3450
F 0 "#PWR033" H 10800 3200 50  0001 C CNN
F 1 "GND" H 10800 3300 50  0000 C CNN
F 2 "" H 10800 3450 50  0000 C CNN
F 3 "" H 10800 3450 50  0000 C CNN
	1    10800 3450
	1    0    0    -1  
$EndComp
Wire Wire Line
	10800 2850 10800 3050
Wire Wire Line
	10800 2950 10700 2950
Connection ~ 10800 2950
Wire Wire Line
	10800 2550 10800 2450
$Comp
L +3V3 #PWR034
U 1 1 582DF0EE
P 10800 2450
F 0 "#PWR034" H 10800 2300 50  0001 C CNN
F 1 "+3V3" V 10800 2650 50  0000 C CNN
F 2 "" H 10800 2450 50  0000 C CNN
F 3 "" H 10800 2450 50  0000 C CNN
	1    10800 2450
	1    0    0    -1  
$EndComp
$Comp
L CONN_01X02 P101
U 1 1 582E163E
P 5900 3050
F 0 "P101" H 5900 3200 50  0000 C CNN
F 1 "LOGIC" V 6000 3050 50  0000 C CNN
F 2 "Local:Pin_Header_Straight_1x02" H 5900 3050 60  0001 C CNN
F 3 "" H 5900 3050 60  0000 C CNN
	1    5900 3050
	-1   0    0    1   
$EndComp
$Comp
L GND #PWR035
U 1 1 582E1C53
P 6200 3200
F 0 "#PWR035" H 6200 2950 60  0001 C CNN
F 1 "GND" H 6200 3050 60  0000 C CNN
F 2 "" H 6200 3200 60  0000 C CNN
F 3 "" H 6200 3200 60  0000 C CNN
	1    6200 3200
	1    0    0    -1  
$EndComp
Wire Wire Line
	6100 3100 6200 3100
Wire Wire Line
	6200 3100 6200 3200
Wire Wire Line
	6100 3000 6200 3000
Wire Wire Line
	6200 3000 6200 2900
$Comp
L +5V #PWR036
U 1 1 582E1FAE
P 6200 2900
F 0 "#PWR036" H 6200 2750 50  0001 C CNN
F 1 "+5V" H 6200 3040 50  0000 C CNN
F 2 "" H 6200 2900 50  0000 C CNN
F 3 "" H 6200 2900 50  0000 C CNN
	1    6200 2900
	1    0    0    -1  
$EndComp
$Comp
L CONN_01X01 M101
U 1 1 582EF717
P 7300 4100
F 0 "M101" H 7300 4200 50  0000 C CNN
F 1 "M3" V 7400 4100 50  0000 C CNN
F 2 "Local:MountingHole_3mm" H 7300 4100 50  0001 C CNN
F 3 "" H 7300 4100 50  0000 C CNN
	1    7300 4100
	0    -1   -1   0   
$EndComp
$Comp
L GND #PWR037
U 1 1 582EF99C
P 7300 4400
F 0 "#PWR037" H 7300 4150 50  0001 C CNN
F 1 "GND" H 7300 4250 50  0000 C CNN
F 2 "" H 7300 4400 50  0000 C CNN
F 3 "" H 7300 4400 50  0000 C CNN
	1    7300 4400
	1    0    0    -1  
$EndComp
Wire Wire Line
	7300 4300 7300 4400
$Comp
L CONN_01X01 M102
U 1 1 582EFF07
P 7600 4100
F 0 "M102" H 7600 4200 50  0000 C CNN
F 1 "M3" V 7700 4100 50  0000 C CNN
F 2 "Local:MountingHole_3mm" H 7600 4100 50  0001 C CNN
F 3 "" H 7600 4100 50  0000 C CNN
	1    7600 4100
	0    -1   -1   0   
$EndComp
$Comp
L GND #PWR038
U 1 1 582EFF0D
P 7600 4400
F 0 "#PWR038" H 7600 4150 50  0001 C CNN
F 1 "GND" H 7600 4250 50  0000 C CNN
F 2 "" H 7600 4400 50  0000 C CNN
F 3 "" H 7600 4400 50  0000 C CNN
	1    7600 4400
	1    0    0    -1  
$EndComp
Wire Wire Line
	7600 4300 7600 4400
$Comp
L CONN_01X01 M103
U 1 1 582EFFC0
P 7900 4100
F 0 "M103" H 7900 4200 50  0000 C CNN
F 1 "M3" V 8000 4100 50  0000 C CNN
F 2 "Local:MountingHole_3mm" H 7900 4100 50  0001 C CNN
F 3 "" H 7900 4100 50  0000 C CNN
	1    7900 4100
	0    -1   -1   0   
$EndComp
$Comp
L GND #PWR039
U 1 1 582EFFC6
P 7900 4400
F 0 "#PWR039" H 7900 4150 50  0001 C CNN
F 1 "GND" H 7900 4250 50  0000 C CNN
F 2 "" H 7900 4400 50  0000 C CNN
F 3 "" H 7900 4400 50  0000 C CNN
	1    7900 4400
	1    0    0    -1  
$EndComp
Wire Wire Line
	7900 4300 7900 4400
$Comp
L CONN_01X01 M104
U 1 1 582EFFCD
P 8200 4100
F 0 "M104" H 8200 4200 50  0000 C CNN
F 1 "M3" V 8300 4100 50  0000 C CNN
F 2 "Local:MountingHole_3mm" H 8200 4100 50  0001 C CNN
F 3 "" H 8200 4100 50  0000 C CNN
	1    8200 4100
	0    -1   -1   0   
$EndComp
$Comp
L GND #PWR040
U 1 1 582EFFD3
P 8200 4400
F 0 "#PWR040" H 8200 4150 50  0001 C CNN
F 1 "GND" H 8200 4250 50  0000 C CNN
F 2 "" H 8200 4400 50  0000 C CNN
F 3 "" H 8200 4400 50  0000 C CNN
	1    8200 4400
	1    0    0    -1  
$EndComp
Wire Wire Line
	8200 4300 8200 4400
$Comp
L CONN_01X01 M601
U 1 1 582F10AE
P 5500 4100
F 0 "M601" H 5500 4200 50  0000 C CNN
F 1 "M3" V 5600 4100 50  0000 C CNN
F 2 "Local:MountingHole_3mm" H 5500 4100 50  0001 C CNN
F 3 "" H 5500 4100 50  0000 C CNN
	1    5500 4100
	0    -1   -1   0   
$EndComp
$Comp
L GND #PWR041
U 1 1 582F10B4
P 5500 4400
F 0 "#PWR041" H 5500 4150 50  0001 C CNN
F 1 "GND" H 5500 4250 50  0000 C CNN
F 2 "" H 5500 4400 50  0000 C CNN
F 3 "" H 5500 4400 50  0000 C CNN
	1    5500 4400
	1    0    0    -1  
$EndComp
Wire Wire Line
	5500 4300 5500 4400
$Comp
L CONN_01X01 M602
U 1 1 582F10BB
P 5800 4100
F 0 "M602" H 5800 4200 50  0000 C CNN
F 1 "M3" V 5900 4100 50  0000 C CNN
F 2 "Local:MountingHole_3mm" H 5800 4100 50  0001 C CNN
F 3 "" H 5800 4100 50  0000 C CNN
	1    5800 4100
	0    -1   -1   0   
$EndComp
$Comp
L GND #PWR042
U 1 1 582F10C1
P 5800 4400
F 0 "#PWR042" H 5800 4150 50  0001 C CNN
F 1 "GND" H 5800 4250 50  0000 C CNN
F 2 "" H 5800 4400 50  0000 C CNN
F 3 "" H 5800 4400 50  0000 C CNN
	1    5800 4400
	1    0    0    -1  
$EndComp
Wire Wire Line
	5800 4300 5800 4400
$Comp
L CONN_01X01 M603
U 1 1 582F10C8
P 6100 4100
F 0 "M603" H 6100 4200 50  0000 C CNN
F 1 "M3" V 6200 4100 50  0000 C CNN
F 2 "Local:MountingHole_3mm" H 6100 4100 50  0001 C CNN
F 3 "" H 6100 4100 50  0000 C CNN
	1    6100 4100
	0    -1   -1   0   
$EndComp
$Comp
L GND #PWR043
U 1 1 582F10CE
P 6100 4400
F 0 "#PWR043" H 6100 4150 50  0001 C CNN
F 1 "GND" H 6100 4250 50  0000 C CNN
F 2 "" H 6100 4400 50  0000 C CNN
F 3 "" H 6100 4400 50  0000 C CNN
	1    6100 4400
	1    0    0    -1  
$EndComp
Wire Wire Line
	6100 4300 6100 4400
Wire Wire Line
	2000 3100 2100 3100
Connection ~ 2100 3200
$Comp
L HEATSINK HS601
U 1 1 582F4176
P 3650 4400
F 0 "HS601" H 3650 4600 50  0000 C CNN
F 1 "HS75_33_19" H 3650 4350 50  0000 C CNN
F 2 "Local:HS75_33_19" H 3650 4400 50  0001 C CNN
F 3 "" H 3650 4400 50  0000 C CNN
	1    3650 4400
	1    0    0    -1  
$EndComp
Wire Wire Line
	1500 4500 1500 4600
Wire Wire Line
	1500 4900 1500 5000
Wire Wire Line
	2000 1950 2000 2050
$Comp
L GND #PWR?
U 1 1 582FB3DB
P 2000 2050
F 0 "#PWR?" H 2000 1800 60  0001 C CNN
F 1 "GND" H 2000 1900 60  0000 C CNN
F 2 "" H 2000 2050 60  0000 C CNN
F 3 "" H 2000 2050 60  0000 C CNN
	1    2000 2050
	1    0    0    -1  
$EndComp
Text Notes 5550 6250 0    60   ~ 0
EQ[Z]: Z = R + 2 * %pi * f * L;\nEQ[P]: P = N * U^2 / Z, Q1;\n\nPR[IN]: [R=824, L=4, f=50, U=220, N=2];\nPR[IN2]: [R=412, L=2, f=50, U=220, N=1];\nEQ[P], PR[IN], numer;\nEQ[P], PR[IN2], numer;
Wire Notes Line
	1000 3800 6300 3800
Wire Notes Line
	6300 5400 1000 5400
Wire Notes Line
	6300 3800 6300 5400
Wire Notes Line
	1000 5400 1000 3800
$EndSCHEMATC
