(module 2PIN_HEAD (layer F.Cu) (tedit 5697CE9E)
  (fp_text reference REF** (at 0 -2.5) (layer F.SilkS)
    (effects (font (size 1 1) (thickness 0.15)))
  )
  (fp_text value 2PIN_HEAD (at 0 2.75) (layer F.Fab)
    (effects (font (size 1 1) (thickness 0.15)))
  )
  (fp_line (start 1.5 -1) (end 3.5 1) (layer F.SilkS) (width 0.15))
  (fp_line (start -3.5 -1) (end -1.5 1) (layer F.SilkS) (width 0.15))
  (fp_circle (center 2.5 0) (end 3.5 1.5) (layer F.SilkS) (width 0.15))
  (fp_circle (center -2.5 0) (end -1 1) (layer F.SilkS) (width 0.15))
  (fp_line (start 1.5 -3.5) (end 1.5 2) (layer F.SilkS) (width 0.15))
  (fp_line (start 1.5 2) (end 3.5 2) (layer F.SilkS) (width 0.15))
  (fp_line (start 3.5 2) (end 3.5 -3.5) (layer F.SilkS) (width 0.15))
  (fp_line (start -3.5 -3.5) (end -3.5 2) (layer F.SilkS) (width 0.15))
  (fp_line (start -3.5 2) (end -1.5 2) (layer F.SilkS) (width 0.15))
  (fp_line (start -1.5 2) (end -1.5 -3.5) (layer F.SilkS) (width 0.15))
  (fp_line (start -5 -2.1) (end -5.5 -2.1) (layer F.SilkS) (width 0.15))
  (fp_line (start -5.5 -2.1) (end -5.5 -1.2) (layer F.SilkS) (width 0.15))
  (fp_line (start -5.5 -1.2) (end -5 -1.2) (layer F.SilkS) (width 0.15))
  (fp_line (start 5 -2.1) (end 4.5 -2.1) (layer F.SilkS) (width 0.15))
  (fp_line (start 4.5 -2.1) (end 4.5 -1.2) (layer F.SilkS) (width 0.15))
  (fp_line (start 4.5 -1.2) (end 5 -1.2) (layer F.SilkS) (width 0.15))
  (fp_line (start -5 2.4) (end -4.5 2.4) (layer F.SilkS) (width 0.15))
  (fp_line (start -4.5 2.4) (end -4.5 3.3) (layer F.SilkS) (width 0.15))
  (fp_line (start -4.5 3.3) (end -5 3.3) (layer F.SilkS) (width 0.15))
  (fp_line (start 5 2.4) (end 5.5 2.4) (layer F.SilkS) (width 0.15))
  (fp_line (start 5.5 2.4) (end 5.5 3.3) (layer F.SilkS) (width 0.15))
  (fp_line (start 5.5 3.3) (end 5 3.3) (layer F.SilkS) (width 0.15))
  (fp_line (start -5 -3.55) (end 5 -3.55) (layer F.SilkS) (width 0.15))
  (fp_line (start 5 -3.55) (end 5 4.05) (layer F.SilkS) (width 0.15))
  (fp_line (start 5 4.05) (end -5 4.05) (layer F.SilkS) (width 0.15))
  (fp_line (start -5 4.05) (end -5 -3.55) (layer F.SilkS) (width 0.15))
  (pad 1 thru_hole oval (at -2.5 0) (size 2 4) (drill 0.95) (layers *.Cu *.Mask F.SilkS))
  (pad 2 thru_hole oval (at 2.5 0) (size 2 4) (drill 0.95) (layers *.Cu *.Mask F.SilkS))
)
