(module LPH-7366 (layer F.Cu) (tedit 582EF617)
  (attr smd)
  (fp_text reference >NAME (at -17.145 -19.685) (layer B.SilkS)
    (effects (font (size 1.27 1.27) (thickness 0.0889)))
  )
  (fp_text value >VALUE (at -16.51 17.145) (layer B.SilkS)
    (effects (font (size 1.27 1.27) (thickness 0.0889)))
  )
  (fp_line (start -14.5 -8.5) (end -14.5 11.5) (layer F.SilkS) (width 0.15))
  (fp_line (start 14.5 -8.5) (end 14.5 11.5) (layer F.SilkS) (width 0.15))
  (fp_line (start -14.5 11.5) (end 14.5 11.5) (layer F.SilkS) (width 0.15))
  (fp_line (start -14.5 -8.5) (end 14.5 -8.5) (layer F.SilkS) (width 0.15))
  (fp_line (start 19.99996 -18.9992) (end 19.99996 15.99946) (layer F.SilkS) (width 0.127))
  (fp_line (start -19.99996 -18.9992) (end -5.99948 -18.9992) (layer F.SilkS) (width 0.127))
  (fp_line (start -5.99948 -18.9992) (end 5.99948 -18.9992) (layer F.SilkS) (width 0.127))
  (fp_line (start 5.99948 -18.9992) (end 19.99996 -18.9992) (layer F.SilkS) (width 0.127))
  (fp_line (start -19.99996 -18.9992) (end -19.99996 15.99946) (layer F.SilkS) (width 0.127))
  (fp_line (start -19.99996 15.99946) (end 19.99996 15.99946) (layer F.SilkS) (width 0.127))
  (fp_line (start -5.99948 -18.9992) (end -5.99948 -13.99794) (layer F.SilkS) (width 0.127))
  (fp_line (start -5.99948 -13.99794) (end 5.99948 -13.99794) (layer F.SilkS) (width 0.127))
  (fp_line (start 5.99948 -13.99794) (end 5.99948 -18.9992) (layer F.SilkS) (width 0.127))
  (fp_line (start -19.89836 -18.8976) (end -19.89836 -15.09776) (layer F.SilkS) (width 0.29972))
  (fp_line (start -19.89836 1.09982) (end -19.89836 4.89966) (layer F.SilkS) (width 0.29972))
  (fp_line (start 19.89836 0.99822) (end 19.89836 4.79806) (layer F.SilkS) (width 0.29972))
  (fp_line (start 19.89836 -18.8976) (end 19.89836 -15.09776) (layer F.SilkS) (width 0.29972))
  (fp_line (start 17.99844 12.99972) (end 17.99844 -10.9982) (layer F.SilkS) (width 0.29972))
  (fp_line (start 16.99768 -11.99896) (end -16.99768 -11.99896) (layer F.SilkS) (width 0.29972))
  (fp_line (start -17.99844 -10.9982) (end -17.99844 12.99972) (layer F.SilkS) (width 0.29972))
  (fp_line (start -16.99768 13.99794) (end 16.99768 13.99794) (layer F.SilkS) (width 0.29972))
  (fp_line (start -19.49958 5.74802) (end -18.49882 5.74802) (layer F.SilkS) (width 0.04826))
  (fp_line (start -18.49882 5.74802) (end -18.49882 8.24992) (layer F.SilkS) (width 0.04826))
  (fp_line (start -18.49882 8.24992) (end -19.49958 8.24992) (layer F.SilkS) (width 0.04826))
  (fp_line (start -19.49958 8.24992) (end -19.49958 5.74802) (layer F.SilkS) (width 0.04826))
  (fp_line (start -19.49958 -7.24916) (end -18.49882 -7.24916) (layer F.SilkS) (width 0.04826))
  (fp_line (start -18.49882 -7.24916) (end -18.49882 -4.7498) (layer F.SilkS) (width 0.04826))
  (fp_line (start -18.49882 -4.7498) (end -19.49958 -4.7498) (layer F.SilkS) (width 0.04826))
  (fp_line (start -19.49958 -4.7498) (end -19.49958 -7.24916) (layer F.SilkS) (width 0.04826))
  (fp_line (start -19.49958 -2.2479) (end -18.49882 -2.2479) (layer F.SilkS) (width 0.04826))
  (fp_line (start -18.49882 -2.2479) (end -18.49882 0.24892) (layer F.SilkS) (width 0.04826))
  (fp_line (start -18.49882 0.24892) (end -19.49958 0.24892) (layer F.SilkS) (width 0.04826))
  (fp_line (start -19.49958 0.24892) (end -19.49958 -2.2479) (layer F.SilkS) (width 0.04826))
  (fp_line (start 18.49882 5.74802) (end 19.49958 5.74802) (layer F.SilkS) (width 0.04826))
  (fp_line (start 19.49958 5.74802) (end 19.49958 8.24992) (layer F.SilkS) (width 0.04826))
  (fp_line (start 19.49958 8.24992) (end 18.49882 8.24992) (layer F.SilkS) (width 0.04826))
  (fp_line (start 18.49882 8.24992) (end 18.49882 5.74802) (layer F.SilkS) (width 0.04826))
  (fp_line (start 18.49882 -2.2479) (end 19.49958 -2.2479) (layer F.SilkS) (width 0.04826))
  (fp_line (start 19.49958 -2.2479) (end 19.49958 0.24892) (layer F.SilkS) (width 0.04826))
  (fp_line (start 19.49958 0.24892) (end 18.49882 0.24892) (layer F.SilkS) (width 0.04826))
  (fp_line (start 18.49882 0.24892) (end 18.49882 -2.2479) (layer F.SilkS) (width 0.04826))
  (fp_line (start 18.49882 -7.24916) (end 19.49958 -7.24916) (layer F.SilkS) (width 0.04826))
  (fp_line (start 19.49958 -7.24916) (end 19.49958 -4.7498) (layer F.SilkS) (width 0.04826))
  (fp_line (start 19.49958 -4.7498) (end 18.49882 -4.7498) (layer F.SilkS) (width 0.04826))
  (fp_line (start 18.49882 -4.7498) (end 18.49882 -7.24916) (layer F.SilkS) (width 0.04826))
  (fp_circle (center -16.99768 -12.99972) (end -17.37106 -13.3731) (layer F.SilkS) (width 0.127))
  (fp_line (start -17.74952 -12.99972) (end -16.24838 -12.99972) (layer F.SilkS) (width 0.127))
  (fp_line (start -16.99768 -12.24788) (end -16.99768 -13.74902) (layer F.SilkS) (width 0.127))
  (fp_circle (center 16.99768 12.49934) (end 17.37106 12.87272) (layer F.SilkS) (width 0.127))
  (fp_line (start 16.24838 12.49934) (end 17.74952 12.49934) (layer F.SilkS) (width 0.127))
  (fp_line (start 16.99768 13.24864) (end 16.99768 11.7475) (layer F.SilkS) (width 0.127))
  (fp_arc (start -16.99768 12.99972) (end -16.99768 13.99794) (angle 90) (layer F.SilkS) (width 0.29972))
  (fp_arc (start 16.99768 12.99972) (end 17.99844 12.99972) (angle 90) (layer F.SilkS) (width 0.29972))
  (fp_arc (start 16.99768 -10.9982) (end 16.99768 -11.99896) (angle 90) (layer F.SilkS) (width 0.29972))
  (fp_arc (start -16.99768 -10.9982) (end -17.99844 -10.9982) (angle 90) (layer F.SilkS) (width 0.29972))
  (pad 1 smd rect (at 3.99796 -16.99768 90) (size 3 0.7493) (layers F.Cu F.Paste F.Mask))
  (pad 2 smd rect (at 2.99974 -16.99768 90) (size 3 0.7493) (layers F.Cu F.Paste F.Mask))
  (pad 3 smd rect (at 1.99898 -16.99768 90) (size 3 0.7493) (layers F.Cu F.Paste F.Mask))
  (pad 4 smd rect (at 0.99822 -16.99768 90) (size 3 0.7493) (layers F.Cu F.Paste F.Mask))
  (pad 5 smd rect (at 0 -16.99768 90) (size 3 0.7493) (layers F.Cu F.Paste F.Mask))
  (pad 6 smd rect (at -0.99822 -16.99768 90) (size 3 0.7493) (layers F.Cu F.Paste F.Mask))
  (pad 7 smd rect (at -1.99898 -16.99768 90) (size 3 0.7493) (layers F.Cu F.Paste F.Mask))
  (pad 8 smd rect (at -2.99974 -16.99768 90) (size 3 0.7493) (layers F.Cu F.Paste F.Mask))
  (pad 9 smd rect (at -3.99796 -16.99768 90) (size 3 0.7493) (layers F.Cu F.Paste F.Mask))
  (pad 10 thru_hole oval (at -19.939 -17.018) (size 1.4 5) (drill oval 0.6 4.2) (layers *.Cu *.Mask F.SilkS))
  (pad 10 thru_hole oval (at -19.939 2.9845) (size 1.4 5) (drill oval 0.6 4.2) (layers *.Cu *.Mask F.SilkS))
  (pad 10 thru_hole oval (at 19.939 2.921) (size 1.4 5) (drill oval 0.6 4.2) (layers *.Cu *.Mask F.SilkS))
  (pad 10 thru_hole oval (at 19.939 -17.018) (size 1.4 5) (drill oval 0.6 4.2) (layers *.Cu *.Mask F.SilkS))
  (pad ~ thru_hole circle (at -16.9926 -13.0048) (size 1.2 1.2) (drill oval 0.6) (layers *.Cu *.Mask F.SilkS))
  (pad ~ thru_hole circle (at 16.9926 12.4968) (size 1.2 1.2) (drill oval 0.6) (layers *.Cu *.Mask F.SilkS))
)
